

Полученная тематическая модель:

0,04757	Topic {big(42) bigdata(96) data(74) machine(35) machinelearning(23) learning(47) hadoop(21) team(15) interview(13) nice(14) }
0,03906	Topic {chelsea(15) manutd(89) fifa(17) game(19) van(15) goal(18) highlights(15) realmadrid(24) today(35) win(16) }
0,03229	Topic {tech(44) big(21) top(17) startup(22) urvaksh(17) valley(15) atlanta(28) people(19) rkischuk(41) clintslee(15) }
0,02441	Topic {sentiment(5) pdf(15) bigdata(10) problem(5) cool(5) machinelearning(21) text(11) classification(9) analysis(7) fun(6) }
0,02398	Topic {streaming(6) movie(13) watch(17) season(11) netflix(45) time(16) list(6) watching(24) great(23) instant(7) }
0,02395	Topic {insurance(9) obamacare(5) public(5) work(15) tons(4) things(4) health(8) free(5) rkischuk(12) apps(5) }
0,02381	Topic {money(13) lolgop(7) gop(9) make(13) vote(11) support(9) house(8) rkischuk(14) life(10) elect(10) }
0,02072	Topic {product(11) development(11) read(10) stop(11) hiring(10) urvaksh(16) start(11) engineers(14) team(17) great(12) }
0,02001	Topic {game(10) auburn(7) exciting(7) national(5) action(3) texas(3) experience(5) nra(4) beardedstoner(3) stuff(4) }
0,01913	Topic {bigdata(54) pdf(10) data(18) interesting(9) google(26) hadoop(7) make(10) nsa(8) graph(15) research(9) }
0,01876	Topic {red(6) georgia(18) education(5) cut(4) public(5) year(9) taxes(8) tax(15) state(19) rkischuk(8) }
0,01733	Topic {xbox360(9) playstation(49) sony(13) xboxone(17) wiiu(5) xbox(12) microsoft(14) choice(6) gpu(9) long(6) }
0,01637	Topic {atcrawford(9) fifa(15) soccer(11) realmadrid(9) barcelona(17) football(12) ronaldo(8) uefa(10) messi(13) fans(9) }
0,01604	Topic {reform(9) lolgop(11) republicans(11) defense(7) bill(44) back(15) tax(23) cimbrelo(36) trickle-down(7) cuts(10) }
0,01578	Topic {xbox360(6) playstation(9) game(9) pretty(7) technical(4) winning(4) fantastic(8) titles(5) great(6) majornelson(9) }
0,01509	Topic {sec(6) game(23) georgia(14) birmingham(6) alabama(21) uab(7) games(13) guys(8) time(13) video(9) }
0,01484	Topic {database(20) bigdata(9) web(12) nsa(8) mongodb(7) scalability(20) case(11) graph(6) nosql(31) architecture(7) }
0,01465	Topic {amazon(27) cloud(20) hybrid(5) web(11) ec2(8) services(9) netflix(8) storage(5) aws(15) scalability(11) }
0,01454	Topic {debate(6) news(6) romney(45) lolgop(9) bush(6) obama(35) gop(25) mitt(13) president(10) anildash(6) }
0,01436	Topic {birmingham(8) foods(6) episode(16) bizarrefoods(48) andrewzimmern(32) atlanta(9) watching(8) great(6) america(11) bourdain(7) }
0,01405	Topic {city(8) metro(6) mariajoyner(5) today(13) norcross(22) downtown(11) atlanta(43) great(8) local(7) traffic(8) }
0,01284	Topic {amazon(19) volume(5) high(12) cost(5) asked(5) low(7) facebook(10) record(10) jobs(9) sales(5) }
0,01284	Topic {techies(4) world(15) quora(9) mafia(3) talent(3) west(4) johnpeltier(8) real(7) thread(6) wars(3) }
0,01265	Topic {computer(8) bigdata(18) government(6) scientists(7) science(10) obama(11) startups(15) list(8) research(12) programming(8) }
0,01197	Topic {ronald(3) trump(3) reagan(8) initiative(3) jobs(5) obama(13) blame(5) admin(6) challenge(5) elect(12) }
0,0109	Topic {nips2013(3) workshop(3) machinelearning(4) section(2) source(9) office(3) event(3) fireworks(2) open(14) policy(3) }
0,01083	Topic {stack(9) system(4) work(4) microsofts(2) re-org(2) continues(3) logo(3) ranking(11) microsoft(15) destructive(2) }
0,01082	Topic {play(3) hacking(2) specials(2) management(3) players(4) obama(2) proper(2) run(3) hard(4) complete(2) }
....

Сопоставление категориям Wiki:

Data management, Information technology management, Project management, Technology, Algorithms, Computational statistics,
System software, Databases, Management, Machine learning, Distributed computing problems, Database theory, Formal sciences, Society,
Big data, Information retrieval, Computer data, Data, Football League Cup winners, Premier League clubs




